M48
;Layer_Color=9474304
;FILE_FORMAT=2:5
INCH,LZ
;TYPE=PLATED
T1F00S00C0.01200
T2F00S00C0.02992
T3F00S00C0.03500
T4F00S00C0.04000
T5F00S00C0.12598
T6F00S00C0.12795
%
T01
X04936Y02
Y02035
X04971
X05006
X05041
X05076
Y02
X05041
X05006
X04971
Y0207
Y02105
X04936
Y0207
X05006
Y02105
X05041
X05076
Y0214
Y02175
X05041
Y0214
X05006
X04971
X04936
Y02175
X04971
X05006
X05041Y0207
X05076
X05131Y02031
X05218Y0218
X05138Y0235
X05128Y02654
X05156
X05098Y02653
X05063Y02661
X05038Y02684
X05327Y02689
Y02724
X05362
X05397
X05432
X05467
Y02689
X05432
X05397
X05362
Y02759
Y02794
X05327
Y02759
X05397
Y02794
X05432
X05467
Y02759
X05432
Y02829
X05397
X05362
X05327
Y02864
X05362
X05397
X05432
X05467
Y02829
X04824Y02473
X04198Y0222
X04153
Y0217
X04198
Y0211
X04153
Y0206
X04198
X04054Y02004
X04018Y0197
Y01945
Y01905
Y0187
X0375601Y0265999
X03759Y02814
X03754Y02908
X03719
X03684
Y02943
Y02978
X03719
X03754
X03789
X03824
Y03013
Y03048
Y03083
X03789
X03754
X03719
X03684
Y03048
X03719
X03754
X03789
Y03013
X03754
X03719
X03684
X03719Y02943
X03754
X03789
Y02908
X03824
Y02943
X05296Y03243
T02
X0486003Y0279893
X0496003
X0506003
X0501003Y0289893
X0491003
X0481003
X0443403
X0433403
X0423403
X0428403Y0279893
X0438403
X0448403
T03
X03817Y03384
X03917
T04
X03729Y01291
Y01391
Y01491
X05615
Y01391
Y01291
Y01591
Y01691
Y01791
Y01891
Y01991
X05614Y02151
Y02251
Y02351
Y02451
Y02551
Y02651
Y02751
Y02851
X03729Y02491
Y02391
Y02291
Y02191
Y02091
Y01991
Y01791
Y01691
Y01591
T05
X0390359Y0117131
X0500595
X0561619Y031595
T06
X0415883Y0314893
X0455884
X0473484
X0513483
M30
